Descr_FieldPlanting.xml,environment/plantingScheme
Descr_Seedling.xml,environment/dimensions/minCorner
Descr_Min.xml,dataPointTemplate/rootClassID
Descr_Geometry.xml,plantTemplate/rootLength
Descr_RootLengthProfile.xml,soil/RootLengthProfile_00-10
Descr_DryWeight.xml,plantTemplate/plantDryWeight
Descr_Environment.xml,soil
Descr_EnvironmentWater.xml,environment/soil/water
Descr_EnvironmentAtmosphere.xml,environment/atmosphere
Descr_CarbonModule.xml,plantTemplate/plantCarbonIncome
Descr_CarbonAllocation.xml,plantTemplate/carbonAllocation2Roots
Descr_CarbonCosts.xml,plantTemplate/rootCarbonCosts
Descr_CarbonSinks.xml,plantTemplate/plantPotentialCarbonSinkForGrowth
Descr_Respiration.xml,plantTemplate/plantRespiration
Descr_RootHairs.xml,dataPointTemplate/rootHairDensity
Descr_Phosphorus.xml,plantTemplate/phosphorus
Descr_PhosphorusDepletionZones.xml,plantTemplate/phosphorus/rootNutrientDepletionVolume
Descr_WaterDoussan.xml,plantTemplate/rootWaterUptakeCheck
Descr_WaterHopmans.xml,dataPointTemplate/rootSegmentWaterUptake;function=waterUptakeFromHopmans
Descr_EvapotranspirationPenmanMonteith.xml,plants/stomatalResistance
Descr_Nitrate.xml,plantTemplate/nitrate
Descr_Potassium.xml,dataPointTemplate/potassium/rootSegmentNutrientUptake;function=barber_cushman_1981_nutrient_uptake
Descr_Potassium3D.xml,soil/potassium/includeThisNutrientInSWMSSimulation
Descr_RCA.xml,simulationControls/aerenchyma
Descr_RCS.xml,plantTemplate/rootVolumeNoRCS
Descr_Stress.xml,plantTemplate/stressFactor
Descr_LocalNutrientResponses.xml,siblingRootTemplate/growthpoint/branchingFrequencyMultiplier;function=localNutrientResponse
Descr_TillersLegacy.xml,rootTypeParameters/#PLANTTYPE#/hypocotyl/branchList/nodalrootsOfTillers/objectGeneratorClassToUse
